verilog xil_defaultlib --include "../../../../vivado_project.gen/sources_1/ip/clk_wiz_0" \
"../../../../vivado_project.gen/sources_1/ip/clk_wiz_0/clk_wiz_0_clk_wiz.v" \
"../../../../vivado_project.gen/sources_1/ip/clk_wiz_0/clk_wiz_0.v" \

verilog xil_defaultlib "glbl.v"

nosort
